<?xml version="1.0" encoding="utf-8"?>
<!-- Generator: Adobe Illustrator 16.0.0, SVG Export Plug-In . SVG Version: 6.00 Build 0)  -->
<!DOCTYPE svg PUBLIC "-//W3C//DTD SVG 1.1//EN" "http://www.w3.org/Graphics/SVG/1.1/DTD/svg11.dtd">
<svg version="1.1" id="Layer_1" xmlns="http://www.w3.org/2000/svg" xmlns:xlink="http://www.w3.org/1999/xlink" x="0px" y="0px"
	 width="95px" height="95px" viewBox="0 0 95 95" enable-background="new 0 0 95 95" xml:space="preserve">
<g>
	<path fill="#3D3D3D" d="M13.8,19.4c-0.5,1.2-3.4,2.3-4.4,3.1c-0.6,0.4-0.5,1.4-2,2c0,0-6.5,2.8-7.3,3.3c-0.8,0.5,0.2,1.9,0.4,2.3
		C0.8,30.4,3,32.9,4,32.9s3,0.4,3.2,0.5c0.2,0.1,2.3,0.8,3.8,0.7c1.5,0,1.7,0.3,2,1.2c0.1,0.5,0.8,1.8,1.5,2.9c0.5,1,1.1,1.8,1.2,2
		c0.3,0.5,0.7,6.9,1.9,9.7c1.3,2.8,3.5,5.399,4,5.8c0.5,0.399,4.6,4,4.8,5.2c0.1,1.199-0.1,12.399,0,13.5
		c0.1,1.1,0.3,1.399,0.3,1.899s-2.1,5.3-2.6,5.601c-0.5,0.399-1.8,0.399-2.5,0c-0.7-0.4-1.6,0.6-1.7,1.1s-1,1,0.4,1.4
		c1.4,0.399,3.8,0.6,4.4,0.5c0.7-0.101,2.9-0.301,3.5-2.301c0.7-1.899,2.1-3.3,2.6-3.899c0.6-0.7,0.5-2,0.5-2s0-5.4,0.4-5.9
		c0.4-0.5,1.4,5.101,1.4,6c0,0.8-0.7,5.2-0.8,5.5c-0.1,0.3-2.2,0-2.7,0.2s-1.3,1.6-0.5,1.8c0.8,0.2,4.8,0.9,6.4,0.101
		c1.5-0.801,1-1.101,1.4-3.9c0.3-2.8,0.9-16.9,1.5-18.1c0.6-1.101,21.4-4.5,23.5-3.9c2.1,0.6,3.3,4.5,4.399,5.3
		c0,0,8.601,6.2,9.7,7.101c1,0.899,1.9,2.3,1.9,3.899C77.8,76.4,77.3,80.2,76.5,80.7s-3.6,0.1-4.4,2.3c-0.8,2.3,3,1.9,3.601,1.9
		c0.6,0,4.8,0,5.5,0c0.7,0.1,2-0.9,2-1.301c0.1-0.399,2.2-10.6,2.2-10.8s2.6,1.4,3.399,1.8c0.8,0.4,6.2,1.5,6.601,1
		C95.5,75.4,90,72.1,88,68.7c-3.5-6.2-4.4-14.5-4.1-18.101c0,0,0.899-7.2-6.101-11.1c0,0-6.399-5.2-15.2-4.4
		c-8.8,0.8-19.8,1.1-22.399,0.6c-2.6-0.5-10.1-4.5-12.1-6.1c-0.1-0.1-0.1-0.1-0.2-0.2c-2-1.9-5.3-7.2-6.1-8.9
		c-0.8-1.8-5.3-10.3-5-10c0.3,0.3-0.3-1-0.8,0.4c-0.4,1.4,0.1,4.5,0.1,4.5s-1.9-3.4-2.6-3.9s-0.4-0.2-0.6,0.7
		c-0.1,0.9-0.2,3.8,0.2,5.1C13.4,18.5,13.9,19,13.8,19.4z"/>
</g>
</svg>
