<?xml version="1.0" encoding="utf-8"?>
<!-- Generator: Adobe Illustrator 16.0.0, SVG Export Plug-In . SVG Version: 6.00 Build 0)  -->
<!DOCTYPE svg PUBLIC "-//W3C//DTD SVG 1.1//EN" "http://www.w3.org/Graphics/SVG/1.1/DTD/svg11.dtd">
<svg version="1.1" id="Layer_1" xmlns="http://www.w3.org/2000/svg" xmlns:xlink="http://www.w3.org/1999/xlink" x="0px" y="0px"
	 width="95px" height="95px" viewBox="0 0 95 95" enable-background="new 0 0 95 95" xml:space="preserve">
<g>
	<path fill="#3D3D3D" d="M93.2,40.8L78.8,15.1H85.4v-2.7H51c1.4-1,2.3-2.7,2.3-4.6c0-3.1-2.5-5.7-5.7-5.7C44.5,2.3,42,4.8,42,7.9
		c0,1.9,0.9,3.5,2.3,4.6H9.6v2.7H16L2,40.8H0.1l2.4,3.9h1v2.2h27.1v-2.2h1l2.4-3.9h-1.5L18.1,15.1h26.2v71.3H27.4V89.1h40.2V86.4
		H50.9V15.1h26l-14,25.6H61l2.4,3.9h1v2.3h27.1v-2.2h1l2.4-3.9C94.8,40.8,93.2,40.8,93.2,40.8z M30.9,40.8H3.5l13.6-24.7L30.9,40.8z
		 M64.2,40.8l13.6-24.7l13.9,24.7H64.2z"/>
	<rect x="9.6" y="90.7" fill="#3D3D3D" width="75.8" height="4.3"/>
</g>
</svg>
