<?xml version="1.0" encoding="utf-8"?>
<!-- Generator: Adobe Illustrator 18.0.0, SVG Export Plug-In . SVG Version: 6.00 Build 0)  -->
<!DOCTYPE svg PUBLIC "-//W3C//DTD SVG 1.1//EN" "http://www.w3.org/Graphics/SVG/1.1/DTD/svg11.dtd">
<svg version="1.1" id="Capa_1" xmlns="http://www.w3.org/2000/svg" xmlns:xlink="http://www.w3.org/1999/xlink" x="0px" y="0px"
	 viewBox="0 0 95 95" enable-background="new 0 0 95 95" xml:space="preserve">
<g id="Layer_2">
</g>
<g>
	<path fill="#3D3D3D" d="M93.1,52h-1.6C91.3,45.7,89.6,17.8,67,7.8v6.7c0,0.8-1.1,1.5-2.5,1.5s-2.5-0.7-2.5-1.5V6
		c-3.5-1-7.4-1.6-11.8-1.8v12.9c0,0-0.2,1.9-2.5,1.9c-2.2,0-2.5-2-2.5-2l0-12.7c-5.1,0.3-9.6,1.2-13.5,2.5v7.7
		c0,0.8-1.1,1.5-2.5,1.5s-2.5-0.7-2.5-1.5V8.9C6,19.7,4.3,45.9,4.2,52H1.9c-1.1,0-2,0.9-2,2c0,1.1,0.9,2,2,2h91.2c1.1,0,2-0.9,2-2
		C95.1,53,94.2,52,93.1,52z M45.7,47l-0.4-0.5c-1.6-1-7.6-5.1-7.4-7.4c0.1-1.1,3.8-2.4,3.8-2.4l4.4,3.4c3.3-4.1,8.3-9.8,11-10.4
		c1.2-0.2,2.7,2.7,2.7,2.7L45.7,47z"/>
	<path fill="#3D3D3D" d="M89.6,57.1H6c-1,0-1.9,0.9-1.9,2c0,1.1,0.8,2,1.9,2h0.7c0,8.2,1.7,28.9,19.5,28.9
		c17.7,0,19.4-20.7,19.4-28.9h4.6c-0.2,8.2,1,28.9,19.6,28.9c18.6,0,19.8-20.7,19.5-28.9h0.2c1,0,1.9-0.9,1.9-2
		C91.4,58,90.6,57.1,89.6,57.1z"/>
</g>
</svg>
