<?xml version="1.0" encoding="utf-8"?>
<!-- Generator: Adobe Illustrator 16.0.0, SVG Export Plug-In . SVG Version: 6.00 Build 0)  -->
<!DOCTYPE svg PUBLIC "-//W3C//DTD SVG 1.1//EN" "http://www.w3.org/Graphics/SVG/1.1/DTD/svg11.dtd">
<svg version="1.1" id="Layer_1" xmlns="http://www.w3.org/2000/svg" xmlns:xlink="http://www.w3.org/1999/xlink" x="0px" y="0px"
	 width="95px" height="95px" viewBox="0 0 95 95" enable-background="new 0 0 95 95" xml:space="preserve">
<g>
	<path fill="#3D3D3D" d="M94.1,50.7c-0.399-2.2-1.8-3.5-1.8-3.5l-7.1-4l-2.5-1.9L82,41.8c0,0-11.5-6-12-6.1c-0.5-0.1-2.9-1.5-15-1.1
		c-12.1,0.4-13.4,2.9-13.4,2.9h1.6L40,43.3v0.4c1,0,3.9,0,5.4,0c1.8,0,2.5,2.3,2.5,2.3s0,3.1,0,5c-0.5,1.9-2.5,2-2.5,2H40v1.7l3.3,1
		c0,0,1.8,4.2,4.9,4.2c3.1,0,4.3-2.5,4.3-2.5H82c0,0,1,2.5,4.1,2.5c3.101,0,3.5-2.5,3.5-2.5h2.2c0,0,1.5-0.9,2.2-1.601
		s0.3-1.1,0.3-1.1l-0.3-1h0.8V51.1H94.9C94.9,51.1,94.9,51.1,94.1,50.7z M55.4,53.2c0,0-0.601-3.4-2.5-3.2
		c0-1.1-0.101-1.5-0.101-1.5h1.9c0,0,1.6-1,0-1.9c-1.601,0-3-0.1-3-0.1L51.6,53.3h-2.5v-9.4H55.4c0,0,1.8,0.3,2.199,1.8
		c0.101,1.2,0,2.2,0,2.2s0,1.1-1,1.6c0.4,1.4,1.801,3.8,1.801,3.8L55.4,53.2z M61.4,53.2h-2.5v-9.4h2.5V53.2z M69.8,51.6
		c0,0-2.7,3.801-5.6,0c-0.8-3-2-7.8-2-7.8h2.5l2.2,7l2.199-7H71.7L69.8,51.6z M79.9,46.1h-5.2v1.1h5.2v2.6h-5.2V50.9h5.2v2.3
		c0,0-2.601,0.2-4.9,0.1c-2.3-0.1-2.9-2.3-2.9-2.3s-0.1-2.7,0-4.8c0.101-2,2.601-2.3,2.601-2.3h5.2V46.1z"/>
	<rect x="42.2" y="46.3" fill="#3D3D3D" width="2.9" height="4.101"/>
	<path fill="#3D3D3D" d="M11.2,45.8c-0.1,1.8,0,4.9,0,4.9s1,2,2.7,2.3c1.8,0,5.3,0,5.3,0v-2.5H14v-1.1h5.2V47H14v-1.3h5.2v-2.3h-4.9
		C14.4,43.5,12.3,43.3,11.2,45.8z"/>
	<path fill="#3D3D3D" d="M20.2,45.9c0,2.2,0,4.8,0,4.8s0.5,2.2,3,2.3c2.6,0,4.9,0,4.9,0v-2.3l-5-0.101V46h5v-2.5h-5
		C23.1,43.5,20.5,43.7,20.2,45.9z"/>
	<path fill="#3D3D3D" d="M35.5,43.6h-3.7c-1.8,0.7-2.5,2.2-2.5,2.2s-0.3,3.3,0,4.9c0.1,1.6,2.5,2.5,2.5,2.5s2.6,0.1,4,0
		c1.4-0.4,2-2.2,2-2.2s0-3.4,0-5.2C37.8,44,35.5,43.6,35.5,43.6z M35.1,50.7h-3v-4.6h3V50.7z"/>
	<path fill="#3D3D3D" d="M5.4,43.5c-2.3-1.1-3.9-1.4-5-2.7c-1-1.3,1.2,8.5,2.8,9C1.6,50.4,1.4,50.4,0.2,50.4
		c1.1,1.699,6,7.1,10,1.899C10.2,52.3,10.1,43,5.4,43.5z"/>
</g>
</svg>
