<?xml version="1.0" encoding="utf-8"?>
<!-- Generator: Adobe Illustrator 18.0.0, SVG Export Plug-In . SVG Version: 6.00 Build 0)  -->
<!DOCTYPE svg PUBLIC "-//W3C//DTD SVG 1.1//EN" "http://www.w3.org/Graphics/SVG/1.1/DTD/svg11.dtd">
<svg version="1.1" id="Capa_3" xmlns="http://www.w3.org/2000/svg" xmlns:xlink="http://www.w3.org/1999/xlink" x="0px" y="0px"
	 viewBox="0 0 95 95" enable-background="new 0 0 95 95" xml:space="preserve">
<g>
	<path fill="#3C3C3C" d="M94.9,83.1c0,0,0,0-0.8-0.4c-0.4-2.2-1.8-3.5-1.8-3.5l-7.1-4l-2.5-1.9L82,73.8c0,0-11.5-6-12-6.1
		c-0.5-0.1-2.9-1.5-15-1.1c-12.1,0.4-13.4,2.9-13.4,2.9h1.6L40,75.3v0.4c1,0,3.9,0,5.4,0c1.8,0,2.5,2.3,2.5,2.3s0,3.1,0,5
		c-0.5,1.9-2.5,2-2.5,2H40v1.7l3.3,1c0,0,1.8,4.2,4.9,4.2c3.1,0,4.3-2.5,4.3-2.5h29.5c0,0,1,2.5,4.1,2.5c3.1,0,3.5-2.5,3.5-2.5h2.2
		c0,0,1.5-0.9,2.2-1.6c0.7-0.7,0.3-1.1,0.3-1.1L94,85.7h0.8V83.1z M55.4,85.2c0,0-0.6-3.4-2.5-3.2c0-1.1-0.1-1.5-0.1-1.5h1.9
		c0,0,1.6-1,0-1.9c-1.6,0-3-0.1-3-0.1l-0.1,6.8h-2.5v-9.4h6.3c0,0,1.8,0.3,2.2,1.8c0.1,1.2,0,2.2,0,2.2s0,1.1-1,1.6
		c0.4,1.4,1.8,3.8,1.8,3.8L55.4,85.2z M61.4,85.2h-2.5v-9.4h2.5V85.2z M69.8,83.6c0,0-2.7,3.8-5.6,0c-0.8-3-2-7.8-2-7.8h2.5l2.2,7
		l2.2-7h2.6L69.8,83.6z M79.9,78.1h-5.2v1.1h5.2v2.6h-5.2v1.1h5.2v2.3c0,0-2.6,0.2-4.9,0.1c-2.3-0.1-2.9-2.3-2.9-2.3s-0.1-2.7,0-4.8
		c0.1-2,2.6-2.3,2.6-2.3h5.2V78.1z"/>
	<rect x="42.2" y="78.3" fill="#3C3C3C" width="2.9" height="4.1"/>
</g>
<g>
	<path fill="#3C3C3C" d="M11.2,77.8c-0.1,1.8,0,4.9,0,4.9s1,2,2.7,2.3c1.8,0,5.3,0,5.3,0v-2.5h-5.2v-1.1h5.2v-2.4h-5.2v-1.3h5.2
		v-2.3h-4.9C14.4,75.5,12.3,75.3,11.2,77.8z"/>
	<path fill="#3C3C3C" d="M20.2,77.9c0,2.2,0,4.8,0,4.8s0.5,2.2,3,2.3c2.6,0,4.9,0,4.9,0v-2.3l-5-0.1v-4.6h5v-2.5h-5
		C23.1,75.5,20.5,75.7,20.2,77.9z"/>
	<path fill="#3C3C3C" d="M35.5,75.6h-3.7c-1.8,0.7-2.5,2.2-2.5,2.2s-0.3,3.3,0,4.9c0.1,1.6,2.5,2.5,2.5,2.5s2.6,0.1,4,0
		c1.4-0.4,2-2.2,2-2.2s0-3.4,0-5.2C37.8,76,35.5,75.6,35.5,75.6z M35.1,82.7h-3v-4.6h3V82.7z"/>
</g>
<path fill="#3C3C3C" d="M10.2,84.3c0,0-0.1-9.3-4.8-8.8c-2.3-1.1-3.9-1.4-5-2.7c-1-1.3,1.2,8.5,2.8,9c-1.6,0.6-1.8,0.6-3,0.6
	C1.3,84.1,6.2,89.5,10.2,84.3z"/>
</svg>
