<?xml version="1.0" encoding="utf-8"?>
<!-- Generator: Adobe Illustrator 16.0.0, SVG Export Plug-In . SVG Version: 6.00 Build 0)  -->
<!DOCTYPE svg PUBLIC "-//W3C//DTD SVG 1.1//EN" "http://www.w3.org/Graphics/SVG/1.1/DTD/svg11.dtd">
<svg version="1.1" id="Layer_1" xmlns="http://www.w3.org/2000/svg" xmlns:xlink="http://www.w3.org/1999/xlink" x="0px" y="0px"
	 width="95px" height="95px" viewBox="0 0 95 95" enable-background="new 0 0 95 95" xml:space="preserve">
<path fill="#3C3C3C" d="M82.739,29.032c1.554-2.805,2.443-6.028,2.443-9.462C85.183,8.762,76.42,0,65.611,0
	c-6.089,0-11.529,2.782-15.118,7.145c-2.293-1.468-5.013-2.33-7.938-2.33c-7.233,0-13.24,5.209-14.5,12.08
	c-1.299-0.696-2.783-1.091-4.36-1.091c-5.113,0-9.26,4.146-9.26,9.26c0,1.841,0.543,3.552,1.47,4.994
	c-0.354-0.025-0.708-0.054-1.068-0.054c-8.149,0-14.755,6.606-14.755,14.755c0,8.15,6.606,14.754,14.755,14.754h64.751l0,0h0.001
	c8.507,0,15.403-6.896,15.403-15.402C94.993,36.684,89.735,30.486,82.739,29.032z"/>
<path fill="#3C3C3C" d="M29.471,67.442l-2.017-2.018l-2.016,2.017c-0.553,0.531-0.9,1.273-0.9,2.101c0,1.61,1.306,2.917,2.916,2.917
	c1.611,0,2.917-1.307,2.917-2.917C30.371,68.716,30.023,67.973,29.471,67.442z"/>
<path fill="#3C3C3C" d="M37.89,84.825l-2.018-2.018l-2.016,2.017c-0.553,0.531-0.9,1.273-0.9,2.101c0,1.61,1.306,2.917,2.916,2.917
	c1.611,0,2.916-1.307,2.916-2.917C38.788,86.099,38.441,85.355,37.89,84.825z"/>
<path fill="#3C3C3C" d="M47.555,67.442l-2.018-2.018l-2.016,2.017c-0.553,0.531-0.9,1.273-0.9,2.101c0,1.61,1.306,2.917,2.916,2.917
	c1.611,0,2.916-1.307,2.916-2.917C48.453,68.716,48.107,67.973,47.555,67.442z"/>
<path fill="#3C3C3C" d="M56.557,84.825l-2.018-2.018l-2.016,2.017c-0.553,0.531-0.9,1.273-0.9,2.101c0,1.61,1.306,2.917,2.916,2.917
	c1.611,0,2.916-1.307,2.916-2.917C57.455,86.099,57.108,85.355,56.557,84.825z"/>
<path fill="#3C3C3C" d="M65.307,67.442l-2.018-2.018l-2.016,2.017c-0.553,0.531-0.9,1.273-0.9,2.101c0,1.61,1.306,2.917,2.916,2.917
	c1.611,0,2.916-1.307,2.916-2.917C66.205,68.716,65.858,67.973,65.307,67.442z"/>
</svg>
