<?xml version="1.0" encoding="utf-8"?>
<!-- Generator: Adobe Illustrator 18.0.0, SVG Export Plug-In . SVG Version: 6.00 Build 0)  -->
<!DOCTYPE svg PUBLIC "-//W3C//DTD SVG 1.1//EN" "http://www.w3.org/Graphics/SVG/1.1/DTD/svg11.dtd">
<svg version="1.1" id="Layer_1" xmlns="http://www.w3.org/2000/svg" xmlns:xlink="http://www.w3.org/1999/xlink" x="0px" y="0px"
	 viewBox="0 0 95 95" enable-background="new 0 0 95 95" xml:space="preserve">
<path fill="#3D3D3D" d="M90.9,22.9l-12,11.7l-13.3-4.1L61.3,16c0,0,8.9-9.5,11.5-12.3c2.6-2.8-2-3.6-2-3.6s-13.8-1-21.7,11
	c-7.9,12-1.7,23.8-1.7,23.8L5.1,73.2c0,0-11.1,8.7-0.9,18.1c10.2,9.5,20.6-3.6,20.6-3.6L61.5,49c0,0,7.4,4.1,19.4-1.3
	C93,42.4,95,27,95,22.9C95,18.8,90.9,22.9,90.9,22.9z M10.7,88.3c-2.4,0-4.3-1.9-4.3-4.3c0-2.4,1.9-4.3,4.3-4.3
	c2.4,0,4.3,1.9,4.3,4.3C15.1,86.4,13.1,88.3,10.7,88.3z"/>
</svg>
