<?xml version="1.0" encoding="utf-8"?>
<!-- Generator: Adobe Illustrator 16.0.0, SVG Export Plug-In . SVG Version: 6.00 Build 0)  -->
<!DOCTYPE svg PUBLIC "-//W3C//DTD SVG 1.1//EN" "http://www.w3.org/Graphics/SVG/1.1/DTD/svg11.dtd">
<svg version="1.1" id="Layer_1" xmlns="http://www.w3.org/2000/svg" xmlns:xlink="http://www.w3.org/1999/xlink" x="0px" y="0px"
	 width="95px" height="95px" viewBox="0 0 95 95" enable-background="new 0 0 95 95" xml:space="preserve">
<path fill="#3D3D3D" d="M91,23L79,34.7l-13.3-4.1l-4.3-14.5c0,0,8.899-9.5,11.5-12.3c2.6-2.8-2-3.6-2-3.6s-13.801-1-21.7,11
	c-7.9,12-1.7,23.8-1.7,23.8L5.2,73.3c0,0-11.1,8.7-0.9,18.101c10.2,9.5,20.6-3.601,20.6-3.601l36.7-38.7c0,0,7.4,4.101,19.4-1.3
	C93.1,42.5,95.1,27.1,95.1,23S91,23,91,23z M10.8,88.4c-2.4,0-4.3-1.9-4.3-4.301c0-2.399,1.9-4.3,4.3-4.3c2.4,0,4.3,1.9,4.3,4.3
	C15.2,86.5,13.2,88.4,10.8,88.4z"/>
</svg>
