<?xml version="1.0" encoding="utf-8"?>
<!-- Generator: Adobe Illustrator 16.0.0, SVG Export Plug-In . SVG Version: 6.00 Build 0)  -->
<!DOCTYPE svg PUBLIC "-//W3C//DTD SVG 1.1//EN" "http://www.w3.org/Graphics/SVG/1.1/DTD/svg11.dtd">
<svg version="1.1" id="Layer_1" xmlns="http://www.w3.org/2000/svg" xmlns:xlink="http://www.w3.org/1999/xlink" x="0px" y="0px"
	 width="95px" height="95px" viewBox="0 0 95 95" enable-background="new 0 0 95 95" xml:space="preserve">
<g id="Capa_2">
	<path fill="#3D3D3D" d="M86.021,65.582L69.18,52.977l-6.857,6.857l-9.177-9.277c0,0,21.278-21.28,23.9-23.9
		c6.454,6.353,15.529,18.656,18.051,22.388c0.202-13.816-13.009-27.43-13.009-27.43l6.857-6.858l-5.244-5.244
		c0,0-5.042,5.042-6.857,6.857C61.817,3.159,53.146,3.462,49.414,3.26c4.941,2.118,22.488,18.152,22.488,18.152l-23.9,23.8
		L22.287,19.193L19.867,2.05L0,21.917l17.245,2.42l25.615,26.019L7.462,85.65l5.243,5.244L48.001,55.6l9.179,9.276l-6.354,6.354
		c0,0,11.093,14.723,13.512,17.95c2.421,3.227,7.867,2.219,7.867,2.219s10.285-1.211,13.008-1.513
		c2.724-0.304,2.623-2.624,2.623-2.624s1.008-8.874,1.713-14.421C90.257,67.397,86.021,65.582,86.021,65.582z M6.454,19.698
		L17.547,8.604l1.916,13.211L6.454,19.698z"/>
</g>
</svg>
