<?xml version="1.0" encoding="utf-8"?>
<!-- Generator: Adobe Illustrator 16.0.0, SVG Export Plug-In . SVG Version: 6.00 Build 0)  -->
<!DOCTYPE svg PUBLIC "-//W3C//DTD SVG 1.1//EN" "http://www.w3.org/Graphics/SVG/1.1/DTD/svg11.dtd">
<svg version="1.1" id="Layer_1" xmlns="http://www.w3.org/2000/svg" xmlns:xlink="http://www.w3.org/1999/xlink" x="0px" y="0px"
	 width="95px" height="95px" viewBox="0 0 95 95" enable-background="new 0 0 95 95" xml:space="preserve">
<rect y="86.448" fill="#3D3D3D" width="29.674" height="8.707"/>
<polygon fill="#3D3D3D" points="23.688,86.451 5.986,86.451 8.782,83.133 20.894,83.133 "/>
<rect x="9.761" y="36.669" fill="#3D3D3D" width="10.151" height="46.463"/>
<path fill="#3D3D3D" d="M18.395,10.9H4.924v25.769h19.718L18.395,10.9z M9.153,14.609h6.491l3.011,12.417H9.153V14.609z"/>
<g>
	<g>
		<g>
			<defs>
				<rect id="SVGID_1_" y="0.634" width="79.447" height="94.521"/>
			</defs>
			<clipPath id="SVGID_2_">
				<use xlink:href="#SVGID_1_"  overflow="visible"/>
			</clipPath>
			<polygon clip-path="url(#SVGID_2_)" fill="none" stroke="#3D3D3D" stroke-miterlimit="10" points="78.665,12.633 22.846,29.265 
				20.256,18.58 78.665,1.673 			"/>
		</g>
	</g>
</g>
<line fill="none" stroke="#3D3D3D" stroke-miterlimit="10" x1="29.43" y1="16.215" x2="22.846" y2="29.265"/>
<line fill="none" stroke="#3D3D3D" stroke-miterlimit="10" x1="29.43" y1="16.215" x2="29.43" y2="27.177"/>
<line fill="none" stroke="#BE202E" stroke-miterlimit="10" x1="36.464" y1="14.137" x2="29.428" y2="27.177"/>
<line fill="none" stroke="#BE202E" stroke-miterlimit="10" x1="36.464" y1="14.137" x2="36.464" y2="25.1"/>
<line fill="none" stroke="#BE202E" stroke-miterlimit="10" x1="43.497" y1="12.06" x2="36.464" y2="25.1"/>
<line fill="none" stroke="#BE202E" stroke-miterlimit="10" x1="43.497" y1="12.06" x2="43.497" y2="23.021"/>
<line fill="none" stroke="#BE202E" stroke-miterlimit="10" x1="50.53" y1="9.982" x2="43.497" y2="23.021"/>
<line fill="none" stroke="#BE202E" stroke-miterlimit="10" x1="50.53" y1="9.982" x2="50.53" y2="20.943"/>
<line fill="none" stroke="#BE202E" stroke-miterlimit="10" x1="57.564" y1="7.906" x2="50.53" y2="20.943"/>
<line fill="none" stroke="#BE202E" stroke-miterlimit="10" x1="57.564" y1="7.906" x2="57.564" y2="18.866"/>
<line fill="none" stroke="#3D3D3D" stroke-miterlimit="10" x1="36.464" y1="14.137" x2="29.428" y2="27.177"/>
<line fill="none" stroke="#3D3D3D" stroke-miterlimit="10" x1="36.464" y1="14.137" x2="36.464" y2="25.1"/>
<line fill="none" stroke="#BE202E" stroke-miterlimit="10" x1="43.497" y1="12.06" x2="36.464" y2="25.1"/>
<line fill="none" stroke="#BE202E" stroke-miterlimit="10" x1="43.497" y1="12.06" x2="43.497" y2="23.021"/>
<line fill="none" stroke="#BE202E" stroke-miterlimit="10" x1="50.53" y1="9.982" x2="43.497" y2="23.021"/>
<line fill="none" stroke="#BE202E" stroke-miterlimit="10" x1="50.53" y1="9.982" x2="50.53" y2="20.943"/>
<line fill="none" stroke="#BE202E" stroke-miterlimit="10" x1="57.564" y1="7.906" x2="50.53" y2="20.943"/>
<line fill="none" stroke="#BE202E" stroke-miterlimit="10" x1="57.564" y1="7.906" x2="57.564" y2="18.866"/>
<line fill="none" stroke="#BE202E" stroke-miterlimit="10" x1="64.6" y1="5.829" x2="57.564" y2="18.866"/>
<line fill="none" stroke="#BE202E" stroke-miterlimit="10" x1="64.6" y1="5.829" x2="64.6" y2="16.789"/>
<line fill="none" stroke="#3D3D3D" stroke-miterlimit="10" x1="43.497" y1="12.06" x2="36.464" y2="25.1"/>
<line fill="none" stroke="#3D3D3D" stroke-miterlimit="10" x1="43.497" y1="12.06" x2="43.497" y2="23.021"/>
<line fill="none" stroke="#BE202E" stroke-miterlimit="10" x1="50.53" y1="9.982" x2="43.497" y2="23.021"/>
<line fill="none" stroke="#BE202E" stroke-miterlimit="10" x1="50.53" y1="9.982" x2="50.53" y2="20.943"/>
<line fill="none" stroke="#BE202E" stroke-miterlimit="10" x1="57.564" y1="7.906" x2="50.53" y2="20.943"/>
<line fill="none" stroke="#BE202E" stroke-miterlimit="10" x1="57.564" y1="7.906" x2="57.564" y2="18.866"/>
<line fill="none" stroke="#BE202E" stroke-miterlimit="10" x1="64.6" y1="5.829" x2="57.564" y2="18.866"/>
<line fill="none" stroke="#BE202E" stroke-miterlimit="10" x1="64.6" y1="5.829" x2="64.6" y2="16.789"/>
<line fill="none" stroke="#BE202E" stroke-miterlimit="10" x1="71.633" y1="3.752" x2="64.6" y2="16.789"/>
<line fill="none" stroke="#BE202E" stroke-miterlimit="10" x1="71.633" y1="3.752" x2="71.633" y2="14.711"/>
<line fill="none" stroke="#3D3D3D" stroke-miterlimit="10" x1="50.53" y1="9.982" x2="43.497" y2="23.021"/>
<line fill="none" stroke="#3D3D3D" stroke-miterlimit="10" x1="50.53" y1="9.982" x2="50.53" y2="20.943"/>
<line fill="none" stroke="#3D3D3D" stroke-miterlimit="10" x1="57.564" y1="7.906" x2="50.53" y2="20.943"/>
<line fill="none" stroke="#3D3D3D" stroke-miterlimit="10" x1="57.564" y1="7.906" x2="57.564" y2="18.866"/>
<line fill="none" stroke="#3D3D3D" stroke-miterlimit="10" x1="64.6" y1="5.829" x2="57.564" y2="18.866"/>
<line fill="none" stroke="#3D3D3D" stroke-miterlimit="10" x1="64.6" y1="5.829" x2="64.6" y2="16.789"/>
<line fill="none" stroke="#3D3D3D" stroke-miterlimit="10" x1="71.633" y1="3.752" x2="64.6" y2="16.789"/>
<line fill="none" stroke="#3D3D3D" stroke-miterlimit="10" x1="71.633" y1="3.752" x2="71.633" y2="14.711"/>
<g>
	<g>
		<g>
			<defs>
				<rect id="SVGID_3_" y="0.634" width="79.447" height="94.521"/>
			</defs>
			<clipPath id="SVGID_4_">
				<use xlink:href="#SVGID_3_"  overflow="visible"/>
			</clipPath>
			
				<line clip-path="url(#SVGID_4_)" fill="none" stroke="#3D3D3D" stroke-miterlimit="10" x1="78.665" y1="1.674" x2="71.631" y2="14.71"/>
		</g>
	</g>
	<g>
		<g>
			<defs>
				<rect id="SVGID_5_" y="0.634" width="79.447" height="94.521"/>
			</defs>
			<clipPath id="SVGID_6_">
				<use xlink:href="#SVGID_5_"  overflow="visible"/>
			</clipPath>
			
				<line clip-path="url(#SVGID_6_)" fill="none" stroke="#3D3D3D" stroke-miterlimit="10" x1="78.665" y1="1.674" x2="78.665" y2="12.634"/>
		</g>
	</g>
</g>
<rect x="67.78" y="15.794" fill="#3D3D3D" width="0.885" height="20.596"/>
<g>
	<g>
		<g>
			<defs>
				<rect id="SVGID_7_" y="0.634" width="79.447" height="94.521"/>
			</defs>
			<clipPath id="SVGID_8_">
				<use xlink:href="#SVGID_7_"  overflow="visible"/>
			</clipPath>
			<path clip-path="url(#SVGID_8_)" fill="#3D3D3D" d="M68.227,44.64L68.227,44.64c-1.009,0-1.824-0.817-1.824-1.824v-5.921
				c0-1.006,0.815-1.824,1.824-1.824c1.008,0,1.823,0.816,1.823,1.824v5.921C70.05,43.823,69.232,44.64,68.227,44.64"/>
		</g>
	</g>
	<g>
		<g>
			<defs>
				<rect id="SVGID_9_" y="0.634" width="79.447" height="94.521"/>
			</defs>
			<clipPath id="SVGID_10_">
				<use xlink:href="#SVGID_9_"  overflow="visible"/>
			</clipPath>
			<path clip-path="url(#SVGID_10_)" fill="#3D3D3D" d="M72.473,46.342c-0.521,0.415-1.067,0.724-1.584,0.921
				c-0.146,0.08-0.302,0.145-0.472,0.187c-0.14,0.038-0.279,0.055-0.419,0.063c-0.198-0.063-0.398-0.124-0.574-0.202
				c-0.158-0.049-0.313-0.114-0.466-0.201c-0.284-0.166-0.519-0.386-0.696-0.639c-0.068-0.087-0.121-0.177-0.16-0.269
				c-0.34-0.654-0.351-1.461,0.049-2.146c0.174-0.302,0.412-0.544,0.68-0.728c-0.617,0.186-1.174,0.595-1.523,1.199
				c-0.729,1.26-0.304,2.87,0.956,3.602c0.011,0.005,0.021,0.008,0.031,0.014c0.633,0.521,1.497,0.748,2.353,0.521
				c1.14-0.302,1.904-1.306,1.955-2.427C72.561,46.272,72.518,46.307,72.473,46.342"/>
		</g>
	</g>
</g>
<path fill="#3C3C3C" d="M43.331,67l14.774,28.155H95V67H43.331z M58.104,73h-3.826v-2.333h3.826V73z M64.632,73h-3.827v-2.333h3.827
	V73z"/>
<rect x="50.53" y="59.043" fill="#3C3C3C" width="8.803" height="6.624"/>
<rect x="62.53" y="59.043" fill="#3C3C3C" width="8.803" height="6.624"/>
<rect x="56.53" y="51.043" fill="#3C3C3C" width="8.803" height="6.624"/>
<rect x="80" y="62.355" fill="#3C3C3C" width="12.25" height="3.312"/>
</svg>
