<?xml version="1.0" encoding="utf-8"?>
<!-- Generator: Adobe Illustrator 18.0.0, SVG Export Plug-In . SVG Version: 6.00 Build 0)  -->
<!DOCTYPE svg PUBLIC "-//W3C//DTD SVG 1.1//EN" "http://www.w3.org/Graphics/SVG/1.1/DTD/svg11.dtd">
<svg version="1.1" id="Layer_1" xmlns="http://www.w3.org/2000/svg" xmlns:xlink="http://www.w3.org/1999/xlink" x="0px" y="0px"
	 viewBox="0 0 95 95" enable-background="new 0 0 95 95" xml:space="preserve">
<path fill="#3D3D3D" d="M76.3,52.2L72.9,56l1.7,1.5l-3.2,3.6c-2.1-2.1-4.8-3.8-7.7-4.7l0.8-5.9l3.2,0.4l1-7.1l-11.5-1.6l-1,7.1
	l3.2,0.4l-0.8,5.6c-0.4,0-0.8-0.1-1.2-0.1c-3.2,0-6.1,0.8-8.8,2.1l-1.2-1.4V17c0-8.8-7.2-16-16-16H26c-8.8,0-16,7.2-16,16v58.5
	c0,8.8,7.2,16,16,16h5.5c4,0,7.7-1.5,10.5-4c3.6,4.6,9.2,7.5,15.5,7.5c10.9,0,19.8-8.9,19.8-19.8c0-4.2-1.3-8.1-3.5-11.3l3.5-4
	l1.7,1.5l3.4-3.8L76.3,52.2z M35.8,79.9c-1.9,1.9-4.5,3-7.4,3s-5.5-1.1-7.4-3h-7c-0.4,0-0.7-0.3-0.7-0.7s0.3-0.7,0.7-0.7h5.8
	c-1.2-1.7-2-3.9-2-6.2c0-0.6,0-1.1,0.1-1.7h-3.9c-0.4,0-0.7-0.3-0.7-0.7c0-0.4,0.3-0.7,0.7-0.7h4.3c1-3.3,3.5-5.9,6.8-6.9v-0.9H13.9
	c-0.4,0-0.7-0.3-0.7-0.7s0.3-0.7,0.7-0.7H25v-7.8H13.9c-0.4,0-0.7-0.3-0.7-0.7c0-0.4,0.3-0.7,0.7-0.7H25v-7.8H13.9
	c-0.4,0-0.7-0.3-0.7-0.7s0.3-0.7,0.7-0.7H25v-7.8H13.9c-0.4,0-0.7-0.3-0.7-0.7s0.3-0.7,0.7-0.7H25v-7.8H13.9c-0.4,0-0.7-0.3-0.7-0.7
	s0.3-0.7,0.7-0.7H25v-7.8H13.9c-0.4,0-0.7-0.3-0.7-0.7s0.3-0.7,0.7-0.7H25v-0.5c0-1.9,1.5-3.4,3.4-3.4s3.4,1.5,3.4,3.4v0.5h11.1
	c0.4,0,0.7,0.3,0.7,0.7s-0.3,0.7-0.7,0.7H31.7v7.8h11.1c0.4,0,0.7,0.3,0.7,0.7s-0.3,0.7-0.7,0.7H31.7V32h11.1c0.4,0,0.7,0.3,0.7,0.7
	s-0.3,0.7-0.7,0.7H31.7v7.8h11.1c0.4,0,0.7,0.3,0.7,0.7s-0.3,0.7-0.7,0.7H31.7v7.8h9.7l-1.7,1.5h-8v7.8h11.1c0.4,0,0.7,0.3,0.7,0.7
	s-0.3,0.7-0.7,0.7H31.7v0.9c3.2,1.1,5.8,3.7,6.8,6.9h0.1c-0.6,1.9-0.9,3.9-0.9,6c0,0.7,0,1.3,0.1,2c-0.2,0.4-0.5,0.9-0.8,1.3h1
	c0.1,0.5,0.2,1,0.3,1.5H35.8z M57.5,91.1c-9.6,0-15.9-7.4-15.9-15.9c0-8.6,6.8-15.9,15.9-15.9c8.8,0,15.9,7.1,15.9,15.9
	S66.3,91.1,57.5,91.1z"/>
<path fill="#3C3C3C" d="M57.8,75.7L57.8,75.7c-0.4,0.1-0.8-0.1-0.9-0.5l-3.6-10.9c-0.1-0.4,0.1-0.8,0.5-0.9h0
	c0.4-0.1,0.8,0.1,0.9,0.5l3.6,10.9C58.4,75.1,58.2,75.6,57.8,75.7z"/>
<path fill="#3C3C3C" d="M57.4,75.6L57.4,75.6c-0.3-0.2-0.4-0.7-0.1-1.1l4.9-6.5c0.2-0.3,0.7-0.4,1.1-0.1l0,0
	c0.3,0.2,0.4,0.7,0.1,1.1l-4.9,6.5C58.2,75.8,57.7,75.8,57.4,75.6z"/>
</svg>
